<svg xmlns="http://www.w3.org/2000/svg" width="71" height="84" viewBox="0 0 71 84">
    <g fill="none" fill-rule="nonzero">
        <path fill="#C9002C" d="M35.4 0L41 14.8 53.2 4.7l-2.7 15.6 15.6-2.6-10 12.2 14.8 5.5L56.1 41l10 12.2-15.6-2.7 2.7 15.6-12.2-10-5.6 14.8-5.5-14.8L7.6 83.6l12.7-33.1-15.6 2.7L14.8 41 0 35.4l14.8-5.5L4.7 17.7l15.6 2.6-2.6-15.6 12.2 10.1z"/>
        <path fill="#FFF" d="M36.3 46.7c-6.5 0-11.8-5.3-11.8-11.8 0-6.5 5.3-11.8 11.8-11.8 3.3 0 6.3 1.3 8.5 3.7l-3 2.9c-1.5-1.5-3.4-2.4-5.5-2.4-4.2 0-7.6 3.4-7.6 7.6 0 4.2 3.4 7.6 7.6 7.6 2.1 0 4.1-.8 5.5-2.4l3 2.9c-2.2 2.4-5.2 3.7-8.5 3.7"/>
    </g>
</svg>
